@ NAME             %06s "SURVEY"
@ TYPE             %06s "SURVEY"
@ TITLE            %07s "B2MCONV"
@ ORIGIN           %18s "5.04.00 Windows 64"
@ DATE             %08s "23/10/19"
@ TIME             %08s "17.34.48"
* NAME                             S               L           ANGLE               X               Y               Z           THETA             PHI             PSI      GLOBALTILT    SLOT_ID ASSEMBLY_ID 
$ %s                             %le             %le             %le             %le             %le             %le             %le             %le             %le             %le         %d         %d 
 "B2MCONV$START"         0.000000000     0.000000000     0.000000000  -673.591730000  2441.573800000  4594.178880000    -0.156550327    -0.000360000     0.000000000     0.000000000          0          0
 "DRIFT_0"               1.350000000     1.350000000     0.000000000  -673.802210719  2441.573314000  4595.512370769    -0.156550327    -0.000360000     0.000000000     0.000000000          0          0
 "BEND1"                 4.950007350     3.600007350    -0.007000000  -674.351043310  2441.572014709  4599.070288854    -0.149550327    -0.000361824     0.000002526    -0.000261799          0          0
 "DRIFT_1"               5.550007350     0.600000000     0.000000000  -674.440439400  2441.571797615  4599.663591721    -0.149550327    -0.000361824     0.000002526     0.000002526          0          0
 "BEND2"                 9.150014700     3.600007350    -0.007000000  -674.964353320  2441.570491759  4603.225264432    -0.142550326    -0.000363647     0.000005066    -0.000261799          0          0
 "DRIFT_2"              24.440014700    15.290000000     0.000000000  -677.136573387  2441.564931589  4618.360175368    -0.142550326    -0.000363647     0.000005066     0.000005066          0          0
 "QUAD1"                27.440014700     3.000000000     0.000000000  -677.562777455  2441.563840647  4621.329745860    -0.142550326    -0.000363647     0.000005066     0.000005066          0          0
 "DRIFT_3"              31.420014700     3.980000000     0.000000000  -678.128208185  2441.562393330  4625.269376045    -0.142550326    -0.000363647     0.000005066     0.000005066          0          0
 "QUAD2"                34.420014700     3.000000000     0.000000000  -678.554412253  2441.561302387  4628.238946536    -0.142550326    -0.000363647     0.000005066     0.000005066          0          0
 "DRIFT_4"              34.855014700     0.435000000     0.000000000  -678.616211843  2441.561144201  4628.669534257    -0.142550326    -0.000363647     0.000005066     0.000005066          0          0
 "QUAD3"                37.845014700     2.990000000     0.000000000  -679.040995230  2441.560056895  4631.629206180    -0.142550326    -0.000363647     0.000005066     0.000005066          0          0
 "DRIFT_5"              43.255014700     5.410000000     0.000000000  -679.809583233  2441.558089562  4636.984331633    -0.142550326    -0.000363647     0.000005066     0.000005066          0          0
 "QUAD4"                46.245014700     2.990000000     0.000000000  -680.234366621  2441.557002256  4639.944003555    -0.142550326    -0.000363647     0.000005066     0.000005066          0          0
 "DRIFT_6"              46.795014700     0.550000000     0.000000000  -680.312504033  2441.556802250  4640.488424812    -0.142550326    -0.000363647     0.000005066     0.000005066          0          0
 "BEND3"                51.795024434     5.000009734    -0.006835600  -681.022836452  2441.572072988  4645.437686844    -0.142548537     0.006471952     0.000005060     1.570534527          0          0
 "DRIFT_7"              52.455024434     0.660000000     0.000000000  -681.116598220  2441.576344447  4646.090978881    -0.142548537     0.006471952     0.000005060     0.000005060          0          0
 "BEND4"                57.455034169     5.000009734    -0.006835600  -681.826890357  2441.625792402  4651.040023231    -0.142546747     0.013307552     0.000005042     1.570534527          0          0
 "DRIFT_8"              58.115034169     0.660000000     0.000000000  -681.920644618  2441.634575127  4651.693271271    -0.142546747     0.013307552     0.000005042     0.000005042          0          0
 "BEND5"                63.115043903     5.000009734    -0.006835600  -682.630863285  2441.718197988  4656.641866695    -0.142544957     0.020143152     0.000005012     1.570534527          0          0
 "DRIFT_9"              64.925043903     1.810000000     0.000000000  -682.887944640  2441.754654627  4658.433145593    -0.142544957     0.020143152     0.000005012     0.000005012          0          0
 "BEND6"                69.925053638     5.000009734    -0.006835600  -683.598056653  2441.872448486  4663.381060864    -0.142543167     0.026978752     0.000004970     1.570534527          0          0
 "DRIFT_10"             70.585053638     0.660000000     0.000000000  -683.691782757  2441.890252303  4664.034129346    -0.142543167     0.026978752     0.000004970     0.000004970          0          0
 "BEND7"                75.585063372     5.000009734    -0.006835600  -684.401754937  2442.042211657  4668.981133273    -0.142541376     0.033814351     0.000004916     1.570534527          0          0
 "DRIFT_11"             76.245063372     0.660000000     0.000000000  -684.495460394  2442.064524876  4669.634066201    -0.142541376     0.033814351     0.000004916     0.000004916          0          0
 "BEND8"                81.245073107     5.000009734    -0.006835600  -685.205259569  2442.250642625  4674.579927634    -0.142539585     0.040649951     0.000004849     1.570534527          0          0
 "DRIFT_12"             81.795073107     0.550000000     0.000000000  -685.283326595  2442.272993941  4675.123900021    -0.142539585     0.040649951     0.000004849     0.000004849          0          0
 "QUAD5"                84.785073107     2.990000000     0.000000000  -685.707727336  2442.394503824  4678.081131726    -0.142539585     0.040649951     0.000004849     0.000004849          0          0
 "DRIFT_13"             94.280073107     9.495000000     0.000000000  -687.055448082  2442.780368821  4687.472073212    -0.142539585     0.040649951     0.000004849     0.000004849          0          0
 "QUAD6"                97.270073107     2.990000000     0.000000000  -687.479848823  2442.901878704  4690.429304918    -0.142539585     0.040649951     0.000004849     0.000004849          0          0
 "DRIFT_14"            123.890073107    26.620000000     0.000000000  -691.258292875  2443.983682414  4716.757568462    -0.142539585     0.040649951     0.000004849     0.000004849          0          0
 "QUAD7"               125.890073107     2.000000000     0.000000000  -691.542172969  2444.064959928  4718.735649871    -0.142539585     0.040649951     0.000004849     0.000004849          0          0
 "DRIFT_15"            139.890073107    14.000000000     0.000000000  -693.529333628  2444.633902524  4732.582219729    -0.142539585     0.040649951     0.000004849     0.000004849          0          0
 "QUAD8"               141.890073107     2.000000000     0.000000000  -693.813213722  2444.715180038  4734.560301137    -0.142539585     0.040649951     0.000004849     0.000004849          0          0
 "DRIFT_16"            168.510073107    26.620000000     0.000000000  -697.591657775  2445.796983747  4760.888564682    -0.142539585     0.040649951     0.000004849     0.000004849          0          0
 "QUAD9"               171.500073107     2.990000000     0.000000000  -698.016058515  2445.918493631  4763.845796387    -0.142539585     0.040649951     0.000004849     0.000004849          0          0
 "DRIFT_17"            180.995073107     9.495000000     0.000000000  -699.363779262  2446.304358628  4773.236737873    -0.142539585     0.040649951     0.000004849     0.000004849          0          0
 "QUAD10"              183.985073107     2.990000000     0.000000000  -699.788180003  2446.425868511  4776.193969579    -0.142539585     0.040649951     0.000004849     0.000004849          0          0
 "DRIFT_18"            219.535073107    35.550000000     0.000000000  -704.834148675  2447.870576319  4811.354366612    -0.142539585     0.040649951     0.000004849     0.000004849          0          0
 "QUAD11"              222.525073107     2.990000000     0.000000000  -705.258549416  2447.992086203  4814.311598317    -0.142539585     0.040649951     0.000004849     0.000004849          0          0
 "DRIFT_19"            232.020073107     9.495000000     0.000000000  -706.606270162  2448.377951200  4823.702539803    -0.142539585     0.040649951     0.000004849     0.000004849          0          0
 "QUAD12"              235.010073107     2.990000000     0.000000000  -707.030670903  2448.499461083  4826.659771508    -0.142539585     0.040649951     0.000004849     0.000004849          0          0
 "DRIFT_20"            261.630073107    26.620000000     0.000000000  -710.809114956  2449.581264792  4852.988035053    -0.142539585     0.040649951     0.000004849     0.000004849          0          0
 "QUAD13"              263.630073107     2.000000000     0.000000000  -711.092995050  2449.662542306  4854.966116461    -0.142539585     0.040649951     0.000004849     0.000004849          0          0
 "DRIFT_21"            277.630073107    14.000000000     0.000000000  -713.080155708  2450.231484903  4868.812686320    -0.142539585     0.040649951     0.000004849     0.000004849          0          0
 "QUAD14"              279.630073107     2.000000000     0.000000000  -713.364035802  2450.312762416  4870.790767728    -0.142539585     0.040649951     0.000004849     0.000004849          0          0
 "DRIFT_22"            306.250073107    26.620000000     0.000000000  -717.142479855  2451.394566126  4897.119031273    -0.142539585     0.040649951     0.000004849     0.000004849          0          0
 "QUAD15"              309.240073107     2.990000000     0.000000000  -717.566880595  2451.516076009  4900.076262978    -0.142539585     0.040649951     0.000004849     0.000004849          0          0
 "DRIFT_23"            318.735073107     9.495000000     0.000000000  -718.914601342  2451.901941006  4909.467204464    -0.142539585     0.040649951     0.000004849     0.000004849          0          0
 "QUAD16"              321.725073107     2.990000000     0.000000000  -719.339002083  2452.023450889  4912.424436169    -0.142539585     0.040649951     0.000004849     0.000004849          0          0
 "DRIFT_24"            322.275073107     0.550000000     0.000000000  -719.417069109  2452.045802205  4912.968408557    -0.142539585     0.040649951     0.000004849     0.000004849          0          0
 "BEND9"               327.275082877     5.000009770     0.006848200  -720.126868457  2452.231888476  4917.914271149    -0.142541379     0.033801751     0.000004916     1.570534527          0          0
 "DRIFT_25"            327.935082877     0.660000000     0.000000000  -720.220573956  2452.254193384  4918.567204355    -0.142541379     0.033801751     0.000004916     0.000004916          0          0
 "BEND10"              332.935092648     5.000009770     0.006848200  -720.930546565  2452.406058282  4923.514211121    -0.142543173     0.026953552     0.000004970     1.570534527          0          0
 "DRIFT_26"            333.595092648     0.660000000     0.000000000  -721.024272737  2452.423845472  4924.167280046    -0.142543173     0.026953552     0.000004970     0.000004970          0          0
 "BEND11"              338.595102418     5.000009770     0.006848200  -721.734385312  2452.541481875  4929.115198983    -0.142544966     0.020105352     0.000005013     1.570534527          0          0
 "DRIFT_27"            340.405102418     1.810000000     0.000000000  -721.991466878  2452.577870110  4930.906479241    -0.142544966     0.020105352     0.000005013     0.000005013          0          0
 "BEND12"              345.405112188     5.000009770     0.006848200  -722.701686120  2452.661272502  4935.855078303    -0.142546759     0.013257152     0.000005043     1.570534527          0          0
 "DRIFT_28"            346.065112188     0.660000000     0.000000000  -722.795440451  2452.670021966  4936.508326779    -0.142546759     0.013257152     0.000005043     0.000005043          0          0
 "BEND13"              351.065121959     5.000009770     0.006848200  -723.505733052  2452.719186435  4941.457373887    -0.142548552     0.006408952     0.000005060     1.570534527          0          0
 "DRIFT_29"            351.725121959     0.660000000     0.000000000  -723.599494868  2452.723416314  4942.110666188    -0.142548552     0.006408952     0.000005060     0.000005060          0          0
 "BEND14"              356.725131729     5.000009770     0.006848200  -724.309827518  2452.738340554  4947.059929243    -0.142550345    -0.000439247     0.000005066     1.570534527          0          0
 "DRIFT_30"            357.275131729     0.550000000     0.000000000  -724.387964938  2452.738098968  4947.604350482    -0.142550345    -0.000439247     0.000005066     0.000005066          0          0
 "QUAD17"              360.265131729     2.990000000     0.000000000  -724.812748367  2452.736785618  4950.564022307    -0.142550345    -0.000439247     0.000005066     0.000005066          0          0
 "DRIFT_31"            369.760131729     9.495000000     0.000000000  -726.161684374  2452.732614963  4959.962712602    -0.142550345    -0.000439247     0.000005066     0.000005066          0          0
 "QUAD18"              372.750131729     2.990000000     0.000000000  -726.586467803  2452.731301613  4962.922384428    -0.142550345    -0.000439247     0.000005066     0.000005066          0          0
 "DRIFT_32"            373.190131729     0.440000000     0.000000000  -726.648977739  2452.731108345  4963.357921419    -0.142550345    -0.000439247     0.000005066     0.000005066          0          0
 "QUAD19"              376.180131729     2.990000000     0.000000000  -727.073761168  2452.729794995  4966.317593244    -0.142550345    -0.000439247     0.000005066     0.000005066          0          0
 "DRIFT_33"            410.210131729    34.030000000     0.000000000  -731.908336449  2452.714847404  5000.002420072    -0.142550345    -0.000439247     0.000005066     0.000005066          0          0
 "BEND15"              412.710132067     2.500000338    -0.001800000  -732.261279219  2452.713748696  5002.477380717    -0.140750345    -0.000439718     0.000005857    -0.000261799          0          0
 "DRIFT_34"            414.660132067     1.950000000     0.000000000  -732.534837045  2452.712891246  5004.408097003    -0.140750345    -0.000439718     0.000005857     0.000005857          0          0
 "BEND16"              417.160132404     2.500000338    -0.001800000  -732.883324316  2452.711791363  5006.883688935    -0.138950344    -0.000440189     0.000006648    -0.000261799          0          0
 "DRIFT_35"            425.075132404     7.915000000     0.000000000  -733.979580617  2452.708307271  5014.722402795    -0.138950344    -0.000440189     0.000006648     0.000006648          0          0
 "QUAD20"              428.065132404     2.990000000     0.000000000  -734.393706497  2452.706991107  5017.683584658    -0.138950344    -0.000440189     0.000006648     0.000006648          0          0
 "DRIFT_36"            442.789132404    14.724000000     0.000000000  -736.433034075  2452.700509771  5032.265672198    -0.138950344    -0.000440189     0.000006648     0.000006648          0          0
 "QUAD21"              445.737132404     2.948000000     0.000000000  -736.841342803  2452.699212096  5035.185258864    -0.138950344    -0.000440189     0.000006648     0.000006648          0          0
 "DRIFT_37"            446.219132404     0.482000000     0.000000000  -736.908101556  2452.698999925  5035.662613264    -0.138950344    -0.000440189     0.000006648     0.000006648          0          0
 "QUAD22"              449.167132404     2.948000000     0.000000000  -737.316410284  2452.697702249  5038.582199930    -0.138950344    -0.000440189     0.000006648     0.000006648          0          0
 "DRIFT_38"            455.188132404     6.021000000     0.000000000  -738.150340693  2452.695051874  5044.545168490    -0.138950344    -0.000440189     0.000006648     0.000006648          0          0
 "QUAD23"              458.178132404     2.990000000     0.000000000  -738.564466573  2452.693735710  5047.506350353    -0.138950344    -0.000440189     0.000006648     0.000006648          0          0
 "DRIFT_39"            458.618132404     0.440000000     0.000000000  -738.625408174  2452.693542027  5047.942109557    -0.138950344    -0.000440189     0.000006648     0.000006648          0          0
 "QUAD24"              461.608132404     2.990000000     0.000000000  -739.039534054  2452.692225864  5050.903291419    -0.138950344    -0.000440189     0.000006648     0.000006648          0          0
 "DRIFT_40"            489.468132404    27.860000000     0.000000000  -742.898245432  2452.679962212  5078.494771918    -0.138950344    -0.000440189     0.000006648     0.000006648          0          0
 "QUAD25"              492.458132404     2.990000000     0.000000000  -743.312371312  2452.678646048  5081.455953780    -0.138950344    -0.000440189     0.000006648     0.000006648          0          0
 "DRIFT_41"            492.898132404     0.440000000     0.000000000  -743.373312913  2452.678452365  5081.891712984    -0.138950344    -0.000440189     0.000006648     0.000006648          0          0
 "QUAD26"              495.888132404     2.990000000     0.000000000  -743.787438793  2452.677136201  5084.852894847    -0.138950344    -0.000440189     0.000006648     0.000006648          0          0
 "DRIFT_42"            504.318132404     8.430000000     0.000000000  -744.955024468  2452.673425412  5093.201645048    -0.138950344    -0.000440189     0.000006648     0.000006648          0          0
 "QUAD27"              507.308132404     2.990000000     0.000000000  -745.369150348  2452.672109249  5096.162826911    -0.138950344    -0.000440189     0.000006648     0.000006648          0          0
 "DRIFT_43"            524.808132404    17.500000000     0.000000000  -747.792964027  2452.664405950  5113.494158882    -0.138950344    -0.000440189     0.000006648     0.000006648          0          0
 "QUAD28"              527.798132404     2.990000000     0.000000000  -748.207089908  2452.663089786  5116.455340745    -0.138950344    -0.000440189     0.000006648     0.000006648          0          0
 "DRIFT_44"            616.758132404    88.960000000     0.000000000  -760.528373617  2452.623930616  5204.557928870    -0.138950344    -0.000440189     0.000006648     0.000006648          0          0
 "B2MCONV$END"         616.758132404     0.000000000     0.000000000  -760.528373617  2452.623930616  5204.557928870    -0.138950344    -0.000440189     0.000006648     0.000006648          0          0
