@ NAME             %06s "SURVEY"
@ TYPE             %06s "SURVEY"
@ TITLE            %07s "B2MCONV"
@ ORIGIN           %18s "5.04.00 Windows 64"
@ DATE             %08s "23/10/19"
@ TIME             %08s "17.22.20"
* NAME                             S               L           ANGLE               X               Y               Z           THETA             PHI             PSI      GLOBALTILT    SLOT_ID ASSEMBLY_ID 
$ %s                             %le             %le             %le             %le             %le             %le             %le             %le             %le             %le         %d         %d 
 "B2MCONV$START"         0.000000000     0.000000000     0.000000000  -673.591730000  2441.573800000  4594.178880000    -0.156550327    -0.000360000     0.000000000     0.000000000          0          0
 "DRIFT_0"               1.350000000     1.350000000     0.000000000  -673.802210719  2441.573314000  4595.512370769    -0.156550327    -0.000360000     0.000000000     0.000000000          0          0
 "BEND1"                 4.950023814     3.600023814    -0.012600000  -674.341079000  2441.572012088  4599.071811635    -0.143950326    -0.000363270     0.000004557    -0.000261799          0          0
 "DRIFT_1"               5.550023814     0.600000000     0.000000000  -674.427151210  2441.571794126  4599.665605814    -0.143950326    -0.000363270     0.000004557     0.000004557          0          0
 "BEND2"                 9.150047628     3.600023814    -0.012600000  -674.921128946  2441.570480443  4603.231553693    -0.131350326    -0.000366540     0.000009155    -0.000261799          0          0
 "DRIFT_2"              20.850047628    11.700000000     0.000000000  -676.453512426  2441.566191928  4614.830768428    -0.131350326    -0.000366540     0.000009155     0.000009155          0          0
 "BEND3"                24.050051810     3.200004181    -0.005600000  -676.863741408  2441.565016659  4618.004364307    -0.125750326    -0.000368000     0.000011211    -0.000261799          0          0
 "DRIFT_3"              27.830051810     3.780000000     0.000000000  -677.337825837  2441.563625619  4621.754516573    -0.125750326    -0.000368000     0.000011211     0.000011211          0          0
 "BEND4"                31.030058343     3.200006533    -0.007000000  -677.728053155  2441.562445094  4624.930633895    -0.118750326    -0.000369824     0.000013794    -0.000261799          0          0
 "DRIFT_4"              31.420058343     0.390000000     0.000000000  -677.774257008  2441.562300863  4625.317887279    -0.118750326    -0.000369824     0.000013794     0.000013794          0          0
 "QUAD1"                34.420058343     3.000000000     0.000000000  -678.129671263  2441.561191392  4628.296759461    -0.118750326    -0.000369824     0.000013794     0.000013794          0          0
 "DRIFT_5"              38.285058343     3.865000000     0.000000000  -678.587563296  2441.559762023  4632.134539789    -0.118750326    -0.000369824     0.000013794     0.000013794          0          0
 "QUAD2"                41.275058343     2.990000000     0.000000000  -678.941792837  2441.558656251  4635.103482397    -0.118750326    -0.000369824     0.000013794     0.000013794          0          0
 "DRIFT_6"              48.945058343     7.670000000     0.000000000  -679.850468616  2441.555819703  4642.719465608    -0.118750326    -0.000369824     0.000013794     0.000013794          0          0
 "QUAD3"                51.935058343     2.990000000     0.000000000  -680.204698157  2441.554713931  4645.688408216    -0.118750326    -0.000369824     0.000013794     0.000013794          0          0
 "DRIFT_7"              52.485058343     0.550000000     0.000000000  -680.269857438  2441.554510528  4646.234534783    -0.118750326    -0.000369824     0.000013794     0.000013794          0          0
 "BEND5"                57.485080248     5.000021905    -0.010254000  -680.862201204  2441.578296319  4651.199266709    -0.118747641     0.009884176     0.000013781     1.570534527          0          0
 "DRIFT_8"              58.145080248     0.660000000     0.000000000  -680.940386767  2441.584819769  4651.854586831    -0.118747641     0.009884176     0.000013781     0.000013781          0          0
 "BEND6"                63.145102153     5.000021905    -0.010254000  -681.532657170  2441.659872829  4656.818817165    -0.118744956     0.020138176     0.000013741     1.570534527          0          0
 "DRIFT_9"              64.955102153     1.810000000     0.000000000  -681.747037324  2441.696320463  4658.615706900    -0.118744956     0.020138176     0.000013741     0.000013741          0          0
 "BEND7"                69.955124058     5.000021905    -0.010254000  -682.339172093  2441.822632902  4663.578913684    -0.118742270     0.030392175     0.000013673     1.570534527          0          0
 "DRIFT_10"             70.615124058     0.660000000     0.000000000  -682.417321849  2441.842688650  4664.233963593    -0.118742270     0.030392175     0.000013673     0.000013673          0          0
 "BEND8"                75.615145964     5.000021905    -0.010254000  -683.009258727  2442.020247185  4669.195624978    -0.118739584     0.040646175     0.000013577     1.570534527          0          0
 "DRIFT_11"             76.165145964     0.550000000     0.000000000  -683.074358333  2442.042596426  4669.741301212    -0.118739584     0.040646175     0.000013577     0.000013577          0          0
 "QUAD4"                79.155145964     2.990000000     0.000000000  -683.428263459  2442.164095028  4672.707795650    -0.118739584     0.040646175     0.000013577     0.000013577          0          0
 "DRIFT_12"             94.393145964    15.238000000     0.000000000  -685.231877612  2442.783290912  4687.826003760    -0.118739584     0.040646175     0.000013577     0.000013577          0          0
 "QUAD5"                97.383145964     2.990000000     0.000000000  -685.585782739  2442.904789514  4690.792498198    -0.118739584     0.040646175     0.000013577     0.000013577          0          0
 "DRIFT_13"            104.589145964     7.206000000     0.000000000  -686.438705930  2443.197605207  4697.941849008    -0.118739584     0.040646175     0.000013577     0.000013577          0          0
 "QUAD6"               106.079145964     1.490000000     0.000000000  -686.615066678  2443.258151333  4699.420135534    -0.118739584     0.040646175     0.000013577     0.000013577          0          0
 "DRIFT_14"            116.170145964    10.091000000     0.000000000  -687.809466890  2443.668198956  4709.431806227    -0.118739584     0.040646175     0.000013577     0.000013577          0          0
 "BEND9"               118.670147600     2.500001636     0.003963400  -688.110292961  2443.769787512  4711.911560941    -0.122706260     0.040646893     0.000174765    -0.000261799          0          0
 "DRIFT_15"            119.470147600     0.800000000     0.000000000  -688.208130934  2443.802296073  4712.704889955    -0.122706260     0.040646893     0.000174765     0.000174765          0          0
 "BEND10"              121.970149236     2.500001636     0.003963400  -688.518790988  2443.903886423  4715.183431811    -0.126672936     0.040647611     0.000335955    -0.000261799          0          0
 "DRIFT_16"            122.770149236     0.800000000     0.000000000  -688.619775060  2443.936395558  4715.976366470    -0.126672936     0.040647611     0.000335955     0.000335955          0          0
 "BEND11"              125.270150873     2.500001636     0.003963400  -688.940264208  2444.037987702  4718.453656470    -0.130639613     0.040648330     0.000497148    -0.000261799          0          0
 "DRIFT_17"            130.830150873     5.560000000     0.000000000  -689.663957846  2444.263930182  4723.961724871    -0.130639613     0.040648330     0.000497148     0.000497148          0          0
 "BEND12"              133.330152509     2.500001636     0.003963400  -689.994271046  2444.365524120  4726.437724035    -0.134606289     0.040649048     0.000658344    -0.000261799          0          0
 "DRIFT_18"            134.130152509     0.800000000     0.000000000  -690.101542498  2444.398034404  4727.229832561    -0.134606289     0.040649048     0.000658344     0.000658344          0          0
 "BEND13"              136.630154145     2.500001636     0.003963400  -690.441674551  2444.499630136  4729.704501932    -0.138572966     0.040649766     0.000819543    -0.000261799          0          0
 "DRIFT_19"            137.430154145     0.800000000     0.000000000  -690.552087186  2444.532140993  4730.496178693    -0.138572966     0.040649766     0.000819543     0.000819543          0          0
 "BEND14"              139.930155781     2.500001636     0.003963400  -690.902032742  2444.633738519  4732.969479332    -0.142539643     0.040650484     0.000980745    -0.000261799          0          0
 "DRIFT_20"            150.021155781    10.091000000     0.000000000  -692.334350299  2445.043829588  4742.949888779    -0.142539643     0.040650484     0.000980745     0.000980745          0          0
 "QUAD7"               151.511155781     1.490000000     0.000000000  -692.545841049  2445.104382129  4744.423559384    -0.142539643     0.040650484     0.000980745     0.000980745          0          0
 "DRIFT_21"            158.717155781     7.206000000     0.000000000  -693.568661415  2445.397228849  4751.550586485    -0.142539643     0.040650484     0.000980745     0.000980745          0          0
 "QUAD8"               161.707155781     2.990000000     0.000000000  -693.993062316  2445.518740324  4754.507818102    -0.142539643     0.040650484     0.000980745     0.000980745          0          0
 "DRIFT_22"            176.945155781    15.238000000     0.000000000  -696.155945572  2446.138001815  4769.578819901    -0.142539643     0.040650484     0.000980745     0.000980745          0          0
 "QUAD9"               179.935155781     2.990000000     0.000000000  -696.580346474  2446.259513291  4772.536051518    -0.142539643     0.040650484     0.000980745     0.000980745          0          0
 "DRIFT_23"            192.885155781    12.950000000     0.000000000  -698.418470779  2446.785792088  4785.344128254    -0.142539643     0.040650484     0.000980745     0.000980745          0          0
 "BEND15"              193.585155781     0.700000000     0.000000000  -698.517828849  2446.814239591  4786.036456726    -0.142539643     0.040650484     0.000980745    -0.000000000          0          0
 "DRIFT_24"            204.165155781    10.580000000     0.000000000  -700.019555116  2447.244203272  4796.500507063    -0.142539643     0.040650484     0.000980745     0.000980745          0          0
 "QUAD10"              207.155155781     2.990000000     0.000000000  -700.443956017  2447.365714748  4799.457738680    -0.142539643     0.040650484     0.000980745     0.000980745          0          0
 "DRIFT_25"            222.393155781    15.238000000     0.000000000  -702.606839273  2447.984976239  4814.528740479    -0.142539643     0.040650484     0.000980745     0.000980745          0          0
 "QUAD11"              225.383155781     2.990000000     0.000000000  -703.031240174  2448.106487714  4817.485972096    -0.142539643     0.040650484     0.000980745     0.000980745          0          0
 "DRIFT_26"            232.589155781     7.206000000     0.000000000  -704.054060540  2448.399334434  4824.612999197    -0.142539643     0.040650484     0.000980745     0.000980745          0          0
 "QUAD12"              234.079155781     1.490000000     0.000000000  -704.265551290  2448.459886975  4826.086669802    -0.142539643     0.040650484     0.000980745     0.000980745          0          0
 "DRIFT_27"            278.021155781    43.942000000     0.000000000  -710.502683199  2450.245658629  4869.547095124    -0.142539643     0.040650484     0.000980745     0.000980745          0          0
 "QUAD13"              279.511155781     1.490000000     0.000000000  -710.714173949  2450.306211170  4871.020765729    -0.142539643     0.040650484     0.000980745     0.000980745          0          0
 "DRIFT_28"            286.717155781     7.206000000     0.000000000  -711.736994316  2450.599057889  4878.147792830    -0.142539643     0.040650484     0.000980745     0.000980745          0          0
 "QUAD14"              289.707155781     2.990000000     0.000000000  -712.161395217  2450.720569364  4881.105024447    -0.142539643     0.040650484     0.000980745     0.000980745          0          0
 "DRIFT_29"            304.945155781    15.238000000     0.000000000  -714.324278473  2451.339830856  4896.176026246    -0.142539643     0.040650484     0.000980745     0.000980745          0          0
 "QUAD15"              307.935155781     2.990000000     0.000000000  -714.748679374  2451.461342331  4899.133257863    -0.142539643     0.040650484     0.000980745     0.000980745          0          0
 "DRIFT_30"            308.485155781     0.550000000     0.000000000  -714.826746429  2451.483693940  4899.677230234    -0.142539643     0.040650484     0.000980745     0.000980745          0          0
 "BEND16"              313.485177765     5.000021983     0.010272300  -715.536592485  2451.661228286  4904.623400483    -0.142542333     0.030378184     0.000980840     1.570534527          0          0
 "DRIFT_31"            314.145177765     0.660000000     0.000000000  -715.630308905  2451.681274804  4905.276405360    -0.142542333     0.030378184     0.000980840     0.000980840          0          0
 "BEND17"              319.145199748     5.000021983     0.010272300  -716.340389885  2451.807471574  4910.224117900    -0.142545023     0.020105885     0.000980908     1.570534527          0          0
 "DRIFT_32"            320.955199748     1.810000000     0.000000000  -716.597471550  2451.843860774  4912.015398125    -0.142545023     0.020105885     0.000980908     0.000980908          0          0
 "BEND18"              325.955221732     5.000021983     0.010272300  -717.307712531  2451.918706653  4916.964130876    -0.142547712     0.009833585     0.000980949     1.570534527          0          0
 "DRIFT_33"            326.615221732     0.660000000     0.000000000  -717.401471191  2451.925196714  4917.617405085    -0.142547712     0.009833585     0.000980949     0.000980949          0          0
 "BEND19"              331.615243715     5.000021983     0.010272300  -718.111797233  2451.948683804  4922.566635861    -0.142550402    -0.000438715     0.000980961     1.570534527          0          0
 "DRIFT_34"            332.165243715     0.550000000     0.000000000  -718.189934684  2451.948442511  4923.111057096    -0.142550402    -0.000438715     0.000980961     0.000980961          0          0
 "QUAD16"              335.155243715     2.990000000     0.000000000  -718.614718282  2451.947130755  4926.070728897    -0.142550402    -0.000438715     0.000980961     0.000980961          0          0
 "DRIFT_35"            350.393243715    15.238000000     0.000000000  -720.779551882  2451.940445622  4941.154166662    -0.142550402    -0.000438715     0.000980961     0.000980961          0          0
 "QUAD17"              353.383243715     2.990000000     0.000000000  -721.204335480  2451.939133866  4944.113838464    -0.142550402    -0.000438715     0.000980961     0.000980961          0          0
 "DRIFT_36"            360.589243715     7.206000000     0.000000000  -722.228078158  2451.935972488  4951.246746492    -0.142550402    -0.000438715     0.000980961     0.000980961          0          0
 "QUAD18"              362.079243715     1.490000000     0.000000000  -722.439759616  2451.935318804  4952.721633109    -0.142550402    -0.000438715     0.000980961     0.000980961          0          0
 "DRIFT_37"            372.100243715    10.021000000     0.000000000  -723.863423976  2451.930922445  4962.640988000    -0.142550402    -0.000438715     0.000980961     0.000980961          0          0
 "BEND20"              377.100268015     5.000024300    -0.010800000  -724.547028078  2451.928721836  4967.594035606    -0.131750401    -0.000441516     0.000985714    -0.000261799          0          0
 "DRIFT_38"            377.760268015     0.660000000     0.000000000  -724.633731989  2451.928430435  4968.248315628    -0.131750401    -0.000441516     0.000985714     0.000985714          0          0
 "BEND21"              382.760292315     5.000024300    -0.010800000  -725.263804345  2451.926215817  4973.208457150    -0.120950400    -0.000444318     0.000990498    -0.000261799          0          0
 "DRIFT_39"            385.340292315     2.580000000     0.000000000  -725.575096069  2451.925069476  4975.769608483    -0.120950400    -0.000444318     0.000990498     0.000990498          0          0
 "BEND22"              390.340316615     5.000024300    -0.010800000  -726.151563189  2451.922840850  4980.736265376    -0.110150400    -0.000447119     0.000995312    -0.000261799          0          0
 "DRIFT_40"            391.000316615     0.660000000     0.000000000  -726.224115523  2451.922545751  4981.392265431    -0.110150400    -0.000447119     0.000995312     0.000995312          0          0
 "BEND23"              396.000340915     5.000024300    -0.010800000  -726.746910168  2451.920303118  4986.364858389    -0.099350399    -0.000449921     0.001000156    -0.000261799          0          0
 "DRIFT_41"            396.520340915     0.520000000     0.000000000  -726.798487423  2451.920069159  4986.882294116    -0.099350399    -0.000449921     0.001000156     0.001000156          0          0
 "QUAD19"              398.010340915     1.490000000     0.000000000  -726.946276098  2451.919398778  4988.364946489    -0.099350399    -0.000449921     0.001000156     0.001000156          0          0
 "DRIFT_42"            424.935340915    26.925000000     0.000000000  -729.616886874  2451.907284661  5015.157171412    -0.099350399    -0.000449921     0.001000156     0.001000156          0          0
 "QUAD20"              427.925340915     2.990000000     0.000000000  -729.913456093  2451.905939398  5018.132426845    -0.099350399    -0.000449921     0.001000156     0.001000156          0          0
 "DRIFT_43"            432.936340915     5.011000000     0.000000000  -730.410482299  2451.903684845  5023.118716133    -0.099350399    -0.000449921     0.001000156     0.001000156          0          0
 "QUAD21"              435.884340915     2.948000000     0.000000000  -730.702885663  2451.902358479  5026.052178680    -0.099350399    -0.000449921     0.001000156     0.001000156          0          0
 "DRIFT_44"            451.978340915    16.094000000     0.000000000  -732.299201720  2451.895117454  5042.066814443    -0.099350399    -0.000449921     0.001000156     0.001000156          0          0
 "QUAD22"              454.926340915     2.948000000     0.000000000  -732.591605084  2451.893791088  5045.000276989    -0.099350399    -0.000449921     0.001000156     0.001000156          0          0
 "DRIFT_45"            459.937340915     5.011000000     0.000000000  -733.088631290  2451.891536535  5049.986566278    -0.099350399    -0.000449921     0.001000156     0.001000156          0          0
 "QUAD23"              462.927340915     2.990000000     0.000000000  -733.385200509  2451.890191272  5052.961821710    -0.099350399    -0.000449921     0.001000156     0.001000156          0          0
 "DRIFT_46"            510.847340915    47.920000000     0.000000000  -738.138242975  2451.868631069  5100.645514127    -0.099350399    -0.000449921     0.001000156     0.001000156          0          0
 "BEND24"              513.347340915     2.500000000    -0.000000000  -738.386210550  2451.867506268  5103.133185893    -0.099350399    -0.000449921     0.001000156     1.570534527          0          0
 "DRIFT_47"            514.147340915     0.800000000     0.000000000  -738.465560173  2451.867146331  5103.929240858    -0.099350399    -0.000449921     0.001000156     0.001000156          0          0
 "BEND25"              516.647340915     2.500000000    -0.000000000  -738.713527748  2451.866021529  5106.416912625    -0.099350399    -0.000449921     0.001000156     1.570534527          0          0
 "DRIFT_48"            555.197340915    38.550000000     0.000000000  -742.537187745  2451.848677084  5144.776811261    -0.099350399    -0.000449921     0.001000156     0.001000156          0          0
 "B2MCONV$END"         555.197340915     0.000000000     0.000000000  -742.537187745  2451.848677084  5144.776811261    -0.099350399    -0.000449921     0.001000156     0.001000156          0          0
